<?xml version="1.0" encoding="UTF-8" standalone="no"?>
<!-- Created with Inkscape (http://www.inkscape.org/) -->

<svg
   xmlns:dc="http://purl.org/dc/elements/1.1/"
   xmlns:cc="http://creativecommons.org/ns#"
   xmlns:rdf="http://www.w3.org/1999/02/22-rdf-syntax-ns#"
   xmlns:svg="http://www.w3.org/2000/svg"
   xmlns="http://www.w3.org/2000/svg"
   xmlns:xlink="http://www.w3.org/1999/xlink"
   xmlns:sodipodi="http://sodipodi.sourceforge.net/DTD/sodipodi-0.dtd"
   xmlns:inkscape="http://www.inkscape.org/namespaces/inkscape"
   id="svg2"
   height="24"
   width="24"
   version="1.0"
   inkscape:version="0.48.1 r9760"
   sodipodi:docname="drive-harddisk.svg">
  <metadata
     id="metadata77">
    <rdf:RDF>
      <cc:Work
         rdf:about="">
        <dc:format>image/svg+xml</dc:format>
        <dc:type
           rdf:resource="http://purl.org/dc/dcmitype/StillImage" />
        <dc:title></dc:title>
      </cc:Work>
    </rdf:RDF>
  </metadata>
  <sodipodi:namedview
     pagecolor="#ffffff"
     bordercolor="#666666"
     borderopacity="1"
     objecttolerance="10"
     gridtolerance="10"
     guidetolerance="10"
     inkscape:pageopacity="0"
     inkscape:pageshadow="2"
     inkscape:window-width="1005"
     inkscape:window-height="640"
     id="namedview75"
     showgrid="false"
     inkscape:zoom="12.43733"
     inkscape:cx="12"
     inkscape:cy="13.005039"
     inkscape:window-x="7"
     inkscape:window-y="24"
     inkscape:window-maximized="0"
     inkscape:current-layer="svg2" />
  <defs
     id="defs4">
    <linearGradient
       id="linearGradient5060">
      <stop
         id="stop5062"
         offset="0" />
      <stop
         id="stop5064"
         style="stop-opacity:0"
         offset="1" />
    </linearGradient>
    <linearGradient
       id="linearGradient2869"
       y2="8.3495"
       gradientUnits="userSpaceOnUse"
       x2="4.459"
       gradientTransform="matrix(.98925 0 0 1.4696 .12903 -10.339)"
       y1="13.499"
       x1="9.599">
      <stop
         id="stop3486-2"
         style="stop-color:#969696"
         offset="0" />
      <stop
         id="stop3488-0"
         style="stop-color:#b4b4b4"
         offset="1" />
    </linearGradient>
    <linearGradient
       id="linearGradient2872"
       y2="104.28"
       gradientUnits="userSpaceOnUse"
       x2="53.991"
       gradientTransform="matrix(.19046 0 0 .24853 .090799 -3.4847)"
       y1="87.896"
       x1="53.991">
      <stop
         id="stop2223-6"
         style="stop-color:#7a7a7a"
         offset="0" />
      <stop
         id="stop2219-1"
         style="stop-color:#474747"
         offset="1" />
    </linearGradient>
    <radialGradient
       id="radialGradient2877"
       xlink:href="#linearGradient5060"
       gradientUnits="userSpaceOnUse"
       cy="486.65"
       cx="605.71"
       gradientTransform="matrix(-.022183 0 0 .010860 16.259 17.381)"
       r="117.14" />
    <radialGradient
       id="radialGradient2880"
       xlink:href="#linearGradient5060"
       gradientUnits="userSpaceOnUse"
       cy="486.65"
       cx="605.71"
       gradientTransform="matrix(.022183 0 0 .010860 7.7407 17.381)"
       r="117.14" />
    <linearGradient
       id="linearGradient2883"
       y2="609.51"
       gradientUnits="userSpaceOnUse"
       x2="302.86"
       gradientTransform="matrix(.037768 0 0 .010860 -1.6503 17.381)"
       y1="366.65"
       x1="302.86">
      <stop
         id="stop5050"
         style="stop-opacity:0"
         offset="0" />
      <stop
         id="stop5056"
         offset=".5" />
      <stop
         id="stop5052"
         style="stop-opacity:0"
         offset="1" />
    </linearGradient>
    <linearGradient
       id="linearGradient4035">
      <stop
         id="stop4037"
         style="stop-color:#f5f5f5"
         offset="0" />
      <stop
         id="stop4039"
         style="stop-color:#e7e7e7"
         offset=".47026" />
      <stop
         id="stop4041"
         style="stop-color:#8c8c8c"
         offset=".69349" />
      <stop
         id="stop4043"
         style="stop-color:#ddd"
         offset=".83543" />
      <stop
         id="stop4045"
         style="stop-color:#a8a8a8"
         offset="1" />
    </linearGradient>
    <radialGradient
       id="radialGradient4241"
       fx="113.67"
       fy="98"
       gradientUnits="userSpaceOnUse"
       cy="97.588"
       cx="113.07"
       r="2.5631">
      <stop
         id="stop4243"
         style="stop-color:#eee"
         offset="0" />
      <stop
         id="stop4245"
         style="stop-color:#cecece"
         offset=".16" />
      <stop
         id="stop4247"
         style="stop-color:#888"
         offset=".4675" />
      <stop
         id="stop4249"
         style="stop-color:#555"
         offset="1" />
    </radialGradient>
    <radialGradient
       id="radialGradient3248"
       gradientUnits="userSpaceOnUse"
       cy="42"
       cx="24"
       gradientTransform="matrix(.52381 0 1.4569e-8 .21429 -.57143 11.5)"
       r="21">
      <stop
         id="stop6312-6"
         style="stop-color:#fff"
         offset="0" />
      <stop
         id="stop6314-6"
         style="stop-color:#fff;stop-opacity:0"
         offset="1" />
    </radialGradient>
    <radialGradient
       id="radialGradient4072"
       gradientUnits="userSpaceOnUse"
       cy="4.2333"
       cx="7.2203"
       gradientTransform="matrix(1.5194 .0037157 -.0030247 1.2368 -3.7373 .067833)"
       r="12">
      <stop
         id="stop7064-4"
         style="stop-color:#e6e6e6"
         offset="0" />
      <stop
         id="stop7060-2"
         style="stop-color:#c8c8c8"
         offset="1" />
    </radialGradient>
    <radialGradient
       id="radialGradient8443"
       fx="113.67"
       fy="98"
       xlink:href="#radialGradient4241"
       gradientUnits="userSpaceOnUse"
       cy="97.588"
       cx="113.07"
       gradientTransform="matrix(2.4957 0 0 2.4957 -223.98 -53.226)"
       r="2.5631" />
    <radialGradient
       id="radialGradient8464"
       gradientUnits="userSpaceOnUse"
       cy="191.85"
       cx="142.62"
       gradientTransform="matrix(.092476 0 0 -.087162 -1.5556 24.366)"
       r="78.728">
      <stop
         id="stop7611-3"
         style="stop-color:#fff"
         offset="0" />
      <stop
         id="stop7677-2"
         style="stop-color:#e7e7e7"
         offset=".47026" />
      <stop
         id="stop7613-4"
         style="stop-color:#8c8c8c"
         offset=".67184" />
      <stop
         id="stop7617-3"
         style="stop-color:#ddd"
         offset=".83543" />
      <stop
         id="stop7615-6"
         style="stop-color:#a8a8a8"
         offset="1" />
    </radialGradient>
    <radialGradient
       id="radialGradient8471"
       xlink:href="#linearGradient4035"
       gradientUnits="userSpaceOnUse"
       cy="206.43"
       cx="141.75"
       gradientTransform="matrix(.18615 -.0031402 .0013777 .18068 -15.013 -20.636)"
       r="78.728" />
    <radialGradient
       id="radialGradient8475"
       xlink:href="#linearGradient4035"
       gradientUnits="userSpaceOnUse"
       cy="143.83"
       cx="127.32"
       gradientTransform="matrix(.10006 -.023376 .0082168 .059717 -5.2741 -.91135)"
       r="78.728" />
    <linearGradient
       id="linearGradient8487"
       y2="33.759"
       gradientUnits="userSpaceOnUse"
       x2="12.222"
       gradientTransform="matrix(.73759 0 0 .53933 -2.796 2.187)"
       y1="37.206"
       x1="12.277">
      <stop
         id="stop4238-4"
         style="stop-color:#eee"
         offset="0" />
      <stop
         id="stop4240-3"
         style="stop-color:#eee;stop-opacity:0"
         offset="1" />
    </linearGradient>
    <linearGradient
       id="linearGradient8490"
       y2="35.281"
       gradientUnits="userSpaceOnUse"
       x2="24.688"
       gradientTransform="matrix(.73759 0 0 .53933 -2.2092 1.4719)"
       y1="35.281"
       x1="7.0625">
      <stop
         id="stop6311"
         offset="0" />
      <stop
         id="stop6313"
         style="stop-color:#bbb;stop-opacity:0"
         offset="1" />
    </linearGradient>
    <radialGradient
       id="radialGradient4811"
       gradientUnits="userSpaceOnUse"
       cy="19.031"
       cx="11.25"
       gradientTransform="matrix(1,0,0,0.28295,0,13.646)"
       r="8.0625">
      <stop
         id="stop2487"
         style="stop-color:#0d0d0d"
         offset="0" />
      <stop
         id="stop2489"
         style="stop-color:#0d0d0d;stop-opacity:0"
         offset="1" />
    </radialGradient>
    <linearGradient
       id="linearGradient4813"
       y2="31.138"
       gradientUnits="userSpaceOnUse"
       x2="-93.087997"
       gradientTransform="matrix(0.51128,-0.12167,0.12241,0.50821,56.783,-3.2077)"
       y1="2.0690999"
       x1="-86.128998">
      <stop
         id="stop2266"
         style="stop-color:#d7e866"
         offset="0" />
      <stop
         id="stop2268"
         style="stop-color:#8cab2a"
         offset="1" />
    </linearGradient>
    <linearGradient
       id="linearGradient3597"
       y2="47.759998"
       gradientUnits="userSpaceOnUse"
       x2="20.493999"
       gradientTransform="matrix(0.50259,0,0,0.49957,1.194,0.76653)"
       y1="6.0098"
       x1="20.493999">
      <stop
         id="stop3402"
         style="stop-color:#fff"
         offset="0" />
      <stop
         id="stop3404"
         style="stop-color:#fff;stop-opacity:0"
         offset="1" />
    </linearGradient>
    <linearGradient
       y2="47.759998"
       x2="20.493999"
       y1="6.0098"
       x1="20.493999"
       gradientTransform="matrix(0.50259,0,0,0.49957,1.194,0.76653)"
       gradientUnits="userSpaceOnUse"
       id="linearGradient3326"
       xlink:href="#linearGradient3597"
       inkscape:collect="always" />
  </defs>
  <rect
     id="rect2723"
     style="opacity:.40206;fill:url(#linearGradient2883)"
     height="2.6374"
     width="18.236"
     y="21.363"
     x="2.8818" />
  <path
     id="path2725"
     style="opacity:.40206;fill:url(#radialGradient2880)"
     d="m21.109 21.363v2.6373c1.1423 0.005 2.7616-0.59088 2.7616-1.3188 0-0.72793-1.2748-1.3185-2.7616-1.3185z" />
  <path
     id="path2727"
     style="opacity:.40206;fill:url(#radialGradient2877)"
     d="m2.8907 21.363v2.6373c-1.1424 0.005-2.7616-0.59088-2.7616-1.3188 0-0.72793 1.2748-1.3185 2.7616-1.3185z" />
  <path
     id="rect2992"
     style="stroke-linejoin:round;stroke:#353537;fill:url(#linearGradient2872)"
     d="m23.5 18.5c-0.46639 3.38-0.35138 3.9815-1.1959 3.9815-0.33079 0.04823-13.337 0-20.654 0-0.91714 0-0.68541 0.06576-1.1498-3.9786l23-0.0029v-0.000049z" />
  <path
     id="rect9146"
     style="fill-rule:evenodd;fill:url(#linearGradient8490)"
     d="m2.7 19h13.3v3h-13l-0.3-3z" />
  <path
     id="path9148"
     style="opacity:.81143;fill:url(#linearGradient8487);fill-rule:evenodd"
     d="m3 22s-0.2-2.1635-0.2-2.1635c1.3539 1.7146 6.3194 2.1635 9.7426 2.1635h-9.5426z" />
  <path
     id="rect2990"
     style="stroke-linejoin:round;stroke:url(#linearGradient2869);stroke-linecap:round;fill:url(#radialGradient4072)"
     d="m2.5 2-1.9774 16.483c-0.014949 0-0.022616 0.0044-0.022616 0.01667h23c0-0.01232-0.0077-0.01667-0.02261-0.01667l-1.977-16.483c-0.099-0.8274-1.167-1.5-2-1.5h-15c-0.8333 0-1.9007 0.6726-2 1.5z" />
  <path
     id="path2215"
     style="opacity:.6;stroke-linejoin:round;stroke:#fff;stroke-linecap:round;fill:none"
     d="m1.4991 18.5h21.002" />
  <rect
     id="rect6300-3"
     style="opacity:.2;fill:url(#radialGradient3248)"
     height="3"
     width="22"
     y="19"
     x="1" />
  <g
     id="g9164"
     transform="matrix(.066101 -.011416 .0079191 .045854 -.89214 -6.4254)">
    <path
       id="path9166"
       style="fill:#e6e6e6"
       d="m48.3 190.28c0.31446 4.2476 5.0238 7.7116 10.514 7.7116 5.4879 0 9.6432-3.464 9.2763-7.7116-0.36437-4.2251-5.0712-7.6367-10.507-7.6367-5.438 0.002-9.5933 3.4116-9.2838 7.6367z" />
    <path
       id="path9168"
       style="fill:url(#radialGradient8443)"
       d="m51.851 187.29c-0.50163 0.53906-1.0756 1.4026-1.0756 2.5506 0 0.0824 0.005 0.16471 0.01 0.25206 0.21713 2.9274 3.8932 5.4006 8.026 5.4006 2.3534 0 4.5046-0.81109 5.7525-2.1737 0.53656-0.58149 1.148-1.5448 1.0382-2.8276-0.25206-2.9024-3.9232-5.3557-8.021-5.3557-2.3359 0.002-4.4797 0.8061-5.73 2.1538h-0.00002z" />
  </g>
  <g
     id="g9170"
     transform="matrix(.067079 0 0 .046533 15.651 -7.2131)">
    <path
       id="path9172"
       style="fill:#e6e6e6"
       d="m48.3 190.28c0.31446 4.2476 5.0238 7.7116 10.514 7.7116 5.4879 0 9.6432-3.464 9.2763-7.7116-0.36437-4.2251-5.0712-7.6367-10.507-7.6367-5.438 0.002-9.5933 3.4116-9.2838 7.6367z" />
    <path
       id="path9174"
       style="fill:url(#radialGradient8443)"
       d="m51.851 187.29c-0.50163 0.53906-1.0756 1.4026-1.0756 2.5506 0 0.0824 0.005 0.16471 0.01 0.25206 0.21713 2.9274 3.8932 5.4006 8.026 5.4006 2.3534 0 4.5046-0.81109 5.7525-2.1737 0.53656-0.58149 1.148-1.5448 1.0382-2.8276-0.25206-2.9024-3.9232-5.3557-8.021-5.3557-2.3359 0.002-4.4797 0.8061-5.73 2.1538h-0.00002z" />
  </g>
  <path
     id="path8469"
     style="fill:url(#radialGradient8471)"
     d="m14.531 1.8125c-0.27749 0-0.52468 0.080669-0.71875 0.21875s-0.33544 0.35016-0.34375 0.59375c-0.02564 0.74969-0.40816 1.2893-1.125 1.7812-0.71102 0.48797-1.7547 0.89986-3 1.2812-0.010197 0.00312-0.021024-0.00312-0.03125 0-0.471 0.098904-1.245 0.37608-2 0.65625-0.7654 0.2842-1.4645 0.5582-1.781 0.7813-1.5978 1.0054-2.5829 2.3417-2.7187 3.813-0.12364 1.3391 0.47939 2.6794 1.6562 3.75 1.7217 1.5662 4.5353 2.5 7.5312 2.5s5.8094-0.93383 7.5312-2.5c1.075-0.97766 1.6562-2.1551 1.6562-3.375 0-0.09948 0.0114-0.24227 0-0.375-0.12-1.2916-0.916-2.4839-2.188-3.438-0.036-0.5044-0.344-4.875-0.344-4.875-0.017-0.2437-0.176-0.4572-0.375-0.5938-0.199-0.1365-0.442-0.2187-0.719-0.2187h-3.0312zm0 0.53125h3.0312c0.06724 0 0.12597 0.018412 0.15625 0.03125l0.375 5.125a0.18752 0.18752 0 0 0 0 0.0625 0.18752 0.18752 0 0 0 0.03125 0.03125 0.18752 0.18752 0 0 0 0.0625 0.0625c1.232 0.84283 1.959 2.1272 2.0625 3.25 0.12887 1.3951-0.69926 2.5486-2.1875 3.4062-1.4882 0.85766-3.6257 1.375-6.0625 1.375s-4.5743-0.51734-6.0625-1.375c-1.4877-0.857-2.3158-2.011-2.187-3.406 0.1109-1.2003 0.9556-2.5362 2.3438-3.406a0.18752 0.18752 0 0 0 0.0312 -0.0312c0.0046-0.0041 0.0687-0.0477 0.1562-0.0938 0.0876-0.0461 0.2082-0.0951 0.3438-0.1562 0.2712-0.1224 0.601-0.2644 0.9688-0.4063 0.7355-0.2837 1.5683-0.5498 1.9687-0.625a0.18752 0.18752 0 0 0 0.03125 0c1.2093-0.36821 2.3581-0.8066 3.25-1.4062 0.87385-0.5875 1.5033-1.369 1.5625-2.4062 0.02028-0.00976 0.06108-0.03125 0.125-0.03125z" />
  <path
     id="path9156"
     style="fill:url(#radialGradient8464)"
     d="m12 13c-1.6825 0-2.9723-0.84474-2.9995-1.9652-0.0003-0.013-0.0005-0.024-0.0005-0.036 0-0.406 0.1691-0.791 0.4903-1.1177 0.5437-0.5519 1.4817-0.8813 2.5097-0.8813s1.9662 0.32942 2.5096 0.8813c0.33072 0.33567 0.50019 0.73466 0.48986 1.1533-0.028 1.12-1.318 1.965-3 1.965v-0.000063zm0.05026-2.746c-1.5809 0-2.4365 0.21014-2.4175 0.97447 0.01833 0.75242 1.0782 1.3536 2.3673 1.3536 1.2892 0 2.349-0.60139 2.3673-1.3536 0.01876-0.76453-0.73621-0.97447-2.3171-0.97447z" />
  <path
     id="path8473"
     style="fill:url(#radialGradient8475)"
     d="m4.9688 1.75a0.25002 0.25002 0 0 0 -0.1563 0.125 0.25002 0.25002 0 0 0 -0.0313 0.0625l-0.0624 0.2187-0.8438 3.25-0.125 0.5313a0.25002 0.25002 0 0 0 0 0.09375 0.25002 0.25002 0 0 0 0.03125 0.09375 0.25002 0.25002 0 0 0 0.15625 0.125 0.25002 0.25002 0 0 0 0.125 0l0.40625-0.125 6.875-2.0312h0.03125a0.25002 0.25002 0 0 0 0.03125 0 0.25002 0.25002 0 0 0 0.03125 0 0.25002 0.25002 0 0 0 0.062 -0.0313c0.46-0.2538 0.695-0.7426 0.75-1.1875 0.028-0.2282 0.008-0.4565-0.062-0.6562-0.041-0.1136-0.127-0.2213-0.219-0.3126-0.093-0.0912-0.212-0.161-0.375-0.1562h-0.03125-6.375-0.15625a0.25002 0.25002 0 0 0 -0.0625 0zm0.5 0.6875h5.9062c-0.015 0.0778-0.035 0.1306-0.063 0.2187-0.049 0.1619-0.145 0.2934-0.124 0.2813l-6.2505 1.8125 0.5313-2.3125z" />
  <g
     id="g9158"
     transform="matrix(-.097811 0 0 .10767 8.1622 -3.8183)">
    <path
       id="path9160"
       style="fill:#e6e6e6"
       d="m48.3 190.28c0.31446 4.2476 5.0238 7.7116 10.514 7.7116 5.4879 0 9.6432-3.464 9.2763-7.7116-0.36437-4.2251-5.0712-7.6367-10.507-7.6367-5.438 0.002-9.5933 3.4116-9.2838 7.6367z" />
    <path
       id="path9162"
       style="fill:url(#radialGradient8443)"
       d="m51.851 187.29c-0.50163 0.53906-1.0756 1.4026-1.0756 2.5506 0 0.0824 0.005 0.16471 0.01 0.25206 0.21713 2.9274 3.8932 5.4006 8.026 5.4006 2.3534 0 4.5046-0.81109 5.7525-2.1737 0.53656-0.58149 1.148-1.5448 1.0382-2.8276-0.25206-2.9024-3.9232-5.3557-8.021-5.3557-2.3359 0.002-4.4797 0.8061-5.73 2.1538h-0.00002z" />
  </g>
  <g
     id="g9190"
     transform="matrix(.097811 0 0 .10767 15.777 -3.8183)">
    <path
       id="path9192"
       style="fill:#e6e6e6"
       d="m48.3 190.28c0.31446 4.2476 5.0238 7.7116 10.514 7.7116 5.4879 0 9.6432-3.464 9.2763-7.7116-0.36437-4.2251-5.0712-7.6367-10.507-7.6367-5.438 0.002-9.5933 3.4116-9.2838 7.6367z" />
    <path
       id="path9194"
       style="fill:url(#radialGradient8443)"
       d="m51.851 187.29c-0.50163 0.53906-1.0756 1.4026-1.0756 2.5506 0 0.0824 0.005 0.16471 0.01 0.25206 0.21713 2.9274 3.8932 5.4006 8.026 5.4006 2.3534 0 4.5046-0.81109 5.7525-2.1737 0.53656-0.58149 1.148-1.5448 1.0382-2.8276-0.25206-2.9024-3.9232-5.3557-8.021-5.3557-2.3359 0.002-4.4797 0.8061-5.73 2.1538h-0.00002z" />
  </g>
  <g
     transform="matrix(0.66665417,0,0,0.66665417,7.8597895,3.4649028)"
     id="layer1">
    <path
       inkscape:connector-curvature="0"
       id="path4346"
       style="opacity:0.16292001;fill:url(#radialGradient4811)"
       d="m 19.312,19.031 a 8.0625,2.2812 0 1 1 -16.125,0 8.0625,2.2812 0 1 1 16.125,0 z"
       transform="matrix(1.4884,0,0,1.4466,-4.7442,-6.8302)" />
    <path
       inkscape:connector-curvature="0"
       id="path1542"
       style="fill:url(#linearGradient4813);stroke:#699536;stroke-width:1.00279999;stroke-linecap:round;stroke-linejoin:round"
       d="M 18.175,3.5051 C 17.89368,3.476722 17.614,3.61368 17.46946,3.8766 l -6.158,11.2 -3.9593,-3.13 c -0.3527,-0.191 -0.7927,-0.068 -0.9855,0.283 l -1.7756,2.2659 c -0.19272,0.35056 -0.063069,0.78783 0.28962,0.97939 0,0 7.2294,5.935 7.2384,5.9394 0.08266,0.0449 0.1691,0.06749 0.25697,0.07853 0.28704,0.03605 0.58079,-0.098 0.72834,-0.3664 l 8.305,-15.105 C 21.60211,5.67085 21.47246,5.23359 21.11977,5.04203 l -2.664,-1.4539 C 18.3676,3.540239 18.26977,3.513963 18.176,3.504504 z" />
    <path
       inkscape:connector-curvature="0"
       id="path1544"
       style="opacity:0.4;fill:none;stroke:url(#linearGradient3326);stroke-width:1.00279999;stroke-linecap:round"
       d="m 18.214,4.6151 -6.593,11.979 -4.578,-3.601 c -0.5,0.6 -0.8489,1.092 -1.4161,1.8 0,0 6.6812,5.4506 6.7617,5.5344 0.25102,-0.4046 7.8917,-14.328 8.0035,-14.541 C 20.22467,5.67116 18.272,4.6613 18.2143,4.615 z" />
  </g>
</svg>
